[
  {
    "amount": 10,
    "age": 25,
    "payment_method": "direct_debit",
    "payment_interval": 12,
    "expected_points": 196
  },
  {
    "amount": 2,
    "age": 18,
    "payment_method": "direct_debit",
    "payment_interval": 0,
    "expected_points": 5
  },
  {
    "amount": 50,
    "age": 42,
    "payment_method": "credit_card",
    "payment_interval": 4,
    "expected_points": 272
  },
  {
    "amount": 20,
    "age": 28,
    "payment_method": "credit_card",
    "payment_interval": 2,
    "expected_points": 62
  },
  {
    "amount": 140,
    "age": 58,
    "payment_method": "direct_debit",
    "payment_interval": 1,
    "expected_points": 164
  },
  {
    "amount": 15,
    "age": 58,
    "payment_method": "direct_debit",
    "payment_interval": 12,
    "expected_points": 228
  },
  {
    "amount": 22,
    "age": 28,
    "payment_method": "credit_card",
    "payment_interval": 4,
    "expected_points": 92
  },
  {
    "amount": 60,
    "age": 18,
    "payment_method": "direct_debit",
    "payment_interval": 2,
    "expected_points": 143
  },
  {
    "amount": 70,
    "age": 25,
    "payment_interval": 1,
    "expected_points": 98
  },
  {
    "amount": 90,
    "age": 42,
    "payment_method": "direct_debit",
    "payment_interval": 0,
    "expected_points": 107
  }
]